…
    library("poppr")
    library("tidyverse")

    data_cols <- cols(
      .default = col_integer(),
      Severity = col_double(),
      Region = col_character(),
      Source = col_character(),
      Host = col_character()
    )
    dat <- readr::read_csv(here::here("data/kamvar2017population.csv"), col_types = data_cols)
    dat

    ## # A tibble: 366 x 23
    ##    Severity   MCG Region Source  Year  Host Isolate `5-2(F)` `5-3(F)`
    ##       <dbl> <int>  <chr>  <chr> <int> <chr>   <int>    <int>    <int>
    ##  1      3.9     4     NE    unk  2003    GH     152      320      328
    ##  2      5.4    45     NE    unk  2003    GH     274      320      328
    ##  3      6.3     5     NY    unk  2003    GH     443      324      308
    ##  4      4.4     4     MN    wmn  2003  G122     444      320      328
    ##  5      4.7     4     MN    wmn  2003 Beryl     445      320      328
    ##  6      6.1     3     MI    wmn  2003 Beryl     446      322      339
    ##  7      5.5     5     MI    wmn  2003 Beryl     447      322      308
    ##  8      5.0     3     MI    wmn  2003 Beryl     448      324      339
    ##  9      5.2     3     MI    wmn  2003 Bunsi     449      322      339
    ## 10      5.3     5     MI    wmn  2003 Bunsi     450      322      308
    ## # ... with 356 more rows, and 14 more variables: `6-2(F)` <int>,
    ## #   `7-2(F)` <int>, `8-3(H)` <int>, `9-2(F)` <int>, `12-2(H)` <int>,
    ## #   `17-3(H)` <int>, `20-3(F)` <int>, `36-4(F)` <int>, `50-4(F)` <int>,
    ## #   `55-4(F)` <int>, `92-4(F)` <int>, `106-4(H)` <int>, `110-4(H)` <int>,
    ## #   `114-4(H)` <int>
…
