…
```r
data_cols <- cols(
  .default = col_integer(),
  Severity = col_double(),
  Region = col_character(),
  Source = col_character(),
  Host = col_character()
)
dat <- readr::read_csv(here::here("data/kamvar2017population.csv"), col_types = data_cols)
dat
```

```
## # A tibble: 366 x 23
##    Severity   MCG Region Source  Year  Host Isolate `5-2(F)` `5-3(F)` `6-2(F)` `7-2(F)`
##       <dbl> <int>  <chr>  <chr> <int> <chr>   <int>    <int>    <int>    <int>    <int>
##  1      3.9     4     NE    unk  2003    GH     152      320      328      489      172
##  2      5.4    45     NE    unk  2003    GH     274      320      328      489      172
##  3      6.3     5     NY    unk  2003    GH     443      324      308      483      172
##  4      4.4     4     MN    wmn  2003  G122     444      320      328      489      172
##  5      4.7     4     MN    wmn  2003 Beryl     445      320      328      489      172
##  6      6.1     3     MI    wmn  2003 Beryl     446      322      339      483      172
##  7      5.5     5     MI    wmn  2003 Beryl     447      322      308      483      172
##  8      5.0     3     MI    wmn  2003 Beryl     448      324      339      483      172
##  9      5.2     3     MI    wmn  2003 Bunsi     449      322      339      483      172
## 10      5.3     5     MI    wmn  2003 Bunsi     450      322      308      483      172
## # ... with 356 more rows, and 12 more variables: `8-3(H)` <int>, `9-2(F)` <int>,
## #   `12-2(H)` <int>, `17-3(H)` <int>, `20-3(F)` <int>, `36-4(F)` <int>, `50-4(F)` <int>,
## #   `55-4(F)` <int>, `92-4(F)` <int>, `106-4(H)` <int>, `110-4(H)` <int>,
## #   `114-4(H)` <int>
```
…
resdf <- map(res, 1) %>% 
  map(as.list) %>% 
  bind_rows()
(resdf <- bind_cols(resdf, data_frame(sims = map(res, 2))))
```

```
## # A tibble: 100 x 5
##             Ia  p.Ia        rbarD  p.rD                   sims
##          <dbl> <dbl>        <dbl> <dbl>                 <list>
##  1  0.21039302 0.032  0.021247657 0.032 <data.frame [999 x 2]>
##  2  0.42522718 0.001  0.042789229 0.001 <data.frame [999 x 2]>
##  3  0.45001788 0.001  0.045507524 0.001 <data.frame [999 x 2]>
##  4  0.19283401 0.033  0.019530412 0.033 <data.frame [999 x 2]>
##  5  0.08062331 0.209  0.008183942 0.209 <data.frame [999 x 2]>
##  6  0.15492112 0.374  0.015778779 0.374 <data.frame [999 x 2]>
##  7 -0.01118965 0.529 -0.001126808 0.529 <data.frame [999 x 2]>
##  8  0.10354491 0.170  0.010551664 0.170 <data.frame [999 x 2]>
##  9  0.67430751 0.001  0.068084058 0.001 <data.frame [999 x 2]>
## 10  0.22415784 0.021  0.022824349 0.021 <data.frame [999 x 2]>
## # ... with 90 more rows
```
…
